part5/cpu_wavedata.vcd
$date
	Sat Jun 14 15:52:35 2025
$end
$version
	Icarus Verilog
$end
$timescale
	1s
$end
$scope module cpu_tb $end
$var wire 32 ! PC [31:0] $end
$var reg 1 " CLK $end
$var reg 32 # INSTRUCTION [31:0] $end
$var reg 1 $ RESET $end
$scope module mycpu $end
$var wire 1 " CLK $end
$var wire 32 % INSTRUCTION [31:0] $end
$var wire 1 $ RESET $end
$var wire 8 & mux2_out [7:0] $end
$var wire 8 ' mux1_out [7:0] $end
$var wire 1 ( ZERO $end
$var wire 3 ) WRITEREG [2:0] $end
$var wire 1 * WRITEENABLE $end
$var wire 8 + WRITEDATA [7:0] $end
$var wire 8 , REGOUT2 [7:0] $end
$var wire 8 - REGOUT1 [7:0] $end
$var wire 3 . READREG2 [2:0] $end
$var wire 3 / READREG1 [2:0] $end
$var wire 32 0 PC [31:0] $end
$var wire 8 1 OPCODE [7:0] $end
$var wire 8 2 OFFSET [7:0] $end
$var wire 1 3 NEMUX $end
$var wire 8 4 NEGATIVENUMBER [7:0] $end
$var wire 1 5 JUMP $end
$var wire 8 6 IMMEDIATE [7:0] $end
$var wire 1 7 BRANCH $end
$var wire 1 8 BNE $end
$var wire 1 9 ALUSRC $end
$var wire 3 : ALUOP [2:0] $end
$scope module ALU $end
$var wire 1 ( ZERO $end
$var wire 3 ; SELECT [2:0] $end
$var wire 8 < RESULT [7:0] $end
$var wire 8 = I7 [7:0] $end
$var wire 8 > I6 [7:0] $end
$var wire 8 ? I5 [7:0] $end
$var wire 8 @ I4 [7:0] $end
$var wire 8 A I3 [7:0] $end
$var wire 8 B I2 [7:0] $end
$var wire 8 C I1 [7:0] $end
$var wire 8 D I0 [7:0] $end
$var wire 8 E DATA2 [7:0] $end
$var wire 8 F DATA1 [7:0] $end
$upscope $end
$scope module DECODER $end
$var wire 32 G INSTRUCTION [31:0] $end
$var reg 8 H IMMEDIATE [7:0] $end
$var reg 8 I OFFSET [7:0] $end
$var reg 8 J OPCODE [7:0] $end
$var reg 3 K READREG1 [2:0] $end
$var reg 3 L READREG2 [2:0] $end
$var reg 3 M WRITEREG [2:0] $end
$upscope $end
$scope module MUX1 $end
$var wire 1 3 select $end
$var wire 8 N OUTPUT [7:0] $end
$var wire 8 O DATA2 [7:0] $end
$var wire 8 P DATA1 [7:0] $end
$upscope $end
$scope module MUX2 $end
$var wire 8 Q DATA1 [7:0] $end
$var wire 8 R DATA2 [7:0] $end
$var wire 1 9 select $end
$var wire 8 S OUTPUT [7:0] $end
$upscope $end
$scope module PCUNIT $end
$var wire 1 T BNE_branch $end
$var wire 1 U Branching $end
$var wire 1 " CLK $end
$var wire 8 V OFFSET [7:0] $end
$var wire 1 $ RESET $end
$var wire 1 ( ZERO $end
$var wire 1 W selector $end
$var wire 32 X nextpc [31:0] $end
$var wire 32 Y PC_plus_four [31:0] $end
$var wire 32 Z OFFSET_EXTENDED [31:0] $end
$var wire 1 5 JUMP $end
$var wire 32 [ BRANCH_TARGET [31:0] $end
$var wire 1 7 BRANCH $end
$var wire 1 8 BNE $end
$var reg 32 \ PC [31:0] $end
$upscope $end
$scope module REGFILE $end
$var wire 1 " CLK $end
$var wire 8 ] IN [7:0] $end
$var wire 3 ^ INADDRESS [2:0] $end
$var wire 3 _ OUT1ADDRESS [2:0] $end
$var wire 3 ` OUT2ADDRESS [2:0] $end
$var wire 1 $ RESET $end
$var wire 1 * WRITE $end
$var reg 8 a OUT1 [7:0] $end
$var reg 8 b OUT2 [7:0] $end
$var reg 8 c register0 [7:0] $end
$var reg 8 d register1 [7:0] $end
$var reg 8 e register2 [7:0] $end
$var reg 8 f register3 [7:0] $end
$var reg 8 g register4 [7:0] $end
$var reg 8 h register5 [7:0] $end
$var reg 8 i register6 [7:0] $end
$var reg 8 j register7 [7:0] $end
$upscope $end
$scope module control $end
$var wire 8 k OPCODE [7:0] $end
$var reg 3 l ALUOP [2:0] $end
$var reg 1 9 ALUSRC $end
$var reg 1 8 BNE $end
$var reg 1 7 BRANCH $end
$var reg 1 5 JUMP $end
$var reg 1 3 NEMUX $end
$var reg 1 * WRITEENABLE $end
$upscope $end
$scope module twos $end
$var wire 8 m DATA_IN [7:0] $end
$var reg 8 n DATA_OUT [7:0] $end
$upscope $end
$upscope $end
$upscope $end
$enddefinitions $end
$comment Show the parameter values. $end
$dumpall
$end
#0
$dumpvars
bx n
bx m
bx l
bx k
bx j
bx i
bx h
bx g
bx f
bx e
bx d
bx c
bx b
bx a
bx `
bx _
bx ^
bx ]
bx \
bx [
bx00 Z
bx Y
bx X
xW
bx V
xU
xT
bx S
bx R
bx Q
bx P
bx O
bx N
bx M
bx L
bx K
bx J
bx I
bx H
bx G
bx F
bx E
bx D
bx C
bx B
bx A
bx @
bx ?
bx >
bx =
bx <
bx ;
bx :
x9
x8
x7
bx 6
x5
bx 4
x3
bx 2
bx 1
bx 0
bx /
bx .
bx -
bx ,
bx +
x*
bx )
x(
bx '
bx &
bx %
0$
bx #
0"
bx !
$end
#2
1$
#4
1"
#5
b0 !
b0 0
b0 \
b0 j
b0 i
b0 h
b0 g
b0 f
b0 e
b0 d
b0 c
#6
b100 Y
0$
#7
b0 Z
b0 2
b0 I
b0 V
b1000 6
b1000 H
b1000 Q
b0 )
b0 M
b0 ^
b0 .
b0 L
b0 `
b0 /
b0 K
b0 _
b101 1
b101 J
b101 k
b101000000000000000000001000 #
b101000000000000000000001000 %
b101000000000000000000001000 G
#8
b100 X
0W
0T
0U
b1000 &
b1000 E
b1000 S
08
05
07
03
09
b0 :
b0 ;
b0 l
1*
0"
#9
0(
b1000 +
b1000 <
b1000 ]
b0 '
b0 N
b0 R
b1000 A
b0 B
b1000 D
b100 [
b0 ,
b0 P
b0 b
b0 m
b0 -
b0 F
b0 a
#10
b0 4
b0 O
b0 n
b0 ?
b1000 C
#11
b0 =
b0 @
b0 >
#12
1"
#13
b100 !
b100 0
b100 \
b1000 c
#14
b1000 X
b1000 '
b1000 N
b1000 R
b1000 Y
b1000 ,
b1000 P
b1000 b
b1000 m
b1000 -
b1000 F
b1000 a
#15
b100 Z
b11110001 &
b11110001 E
b11110001 S
b1 2
b1 I
b1 V
b11110001 6
b11110001 H
b11110001 Q
b1 )
b1 M
b1 ^
b1 .
b1 L
b1 `
b11111000 4
b11111000 O
b11111000 n
b1000 B
b101000000010000000011110001 #
b101000000010000000011110001 %
b101000000010000000011110001 G
b1000 [
#16
b11110001 +
b11110001 <
b11110001 ]
b11111001 A
b0 B
b11110001 D
b11111001 C
0"
#17
b0 '
b0 N
b0 R
b10001000 @
b100 =
b1100 [
b0 ,
b0 P
b0 b
b0 m
#18
b0 4
b0 O
b0 n
#20
1"
#21
b11110001 d
b1000 !
b1000 0
b1000 \
#22
b1100 X
b11110001 '
b11110001 N
b11110001 R
b1100 Y
b11110001 ,
b11110001 P
b11110001 b
b11110001 m
#23
b1000 Z
b11 &
b11 E
b11 S
b10 2
b10 I
b10 V
b11 6
b11 H
b11 Q
b10 )
b10 M
b10 ^
b11 .
b11 L
b11 `
b1100 1
b1100 J
b1100 k
b1111 4
b1111 O
b1111 n
b1100000000100000000000000011 #
b1100000000100000000000000011 %
b1100000000100000000000000011 G
b10000 [
#24
1(
b0 +
b0 <
b0 ]
b1011 A
b11 D
b110 :
b110 ;
b110 l
0"
#25
0(
b1 +
b1 <
b1 ]
b0 '
b0 N
b0 R
b11000 @
b1 =
b1 >
b1000000 ?
b1011 C
b10100 [
b0 ,
b0 P
b0 b
b0 m
#26
b0 4
b0 O
b0 n
#28
1"
#29
b1100 !
b1100 0
b1100 \
b1 e
#30
b10000 X
b10000 Y
#31
b1100 Z
b10 &
b10 E
b10 S
b11 2
b11 I
b11 V
b10 6
b10 H
b10 Q
b11 )
b11 M
b11 ^
b10 .
b10 L
b10 `
b1 /
b1 K
b1 _
b1100000000110000000100000010 #
b1100000000110000000100000010 %
b1100000000110000000100000010 G
b11000 [
#32
b1010 A
b10 D
0"
#33
b10 +
b10 <
b10 ]
b1 '
b1 N
b1 R
b10000 @
b10 >
b10 =
b100000 ?
b11110011 C
b11100 [
b1 ,
b1 P
b1 b
b1 m
b11110001 -
b11110001 F
b11110001 a
#34
b11111111 4
b11111111 O
b11111111 n
b11110011 A
#35
b11111100 +
b11111100 <
b11111100 ]
b11111100 >
b1111100 =
b11000100 ?
b11100010 @
#36
1"
#37
b11111100 f
b10000 !
b10000 0
b10000 \
#38
b10100 X
b10100 Y
#39
bx00 Z
bx &
bx E
bx S
bx 2
bx I
bx V
bx 6
bx H
bx Q
bx )
bx M
bx ^
bx .
bx L
bx `
bx /
bx K
bx _
bx 1
bx J
bx k
bx #
bx %
bx G
b100000 [
#40
b1111xxx1 A
bx000x B
bx D
0"
#41
b1111xxxx +
b1111xxxx <
b1111xxxx ]
b1111xxxx >
bx =
bx ?
bx @
bx C
bx [
#44
1"
#45
b10100 !
b10100 0
b10100 \
#46
b11000 X
b11000 Y
#48
0"
#52
1"
#53
b11000 !
b11000 0
b11000 \
#54
b11100 X
b11100 Y
#56
0"
#60
1"
#61
b11100 !
b11100 0
b11100 \
#62
b100000 X
b100000 Y
#64
0"
#68
1"
#69
b100000 !
b100000 0
b100000 \
#70
b100100 X
b100100 Y
#72
0"
#76
1"
#77
b100100 !
b100100 0
b100100 \
#78
b101000 X
b101000 Y
#80
0"
#84
1"
#85
b101000 !
b101000 0
b101000 \
#86
b101100 X
b101100 Y
#88
0"
#92
1"
#93
b101100 !
b101100 0
b101100 \
#94
b110000 X
b110000 Y
#96
0"
#100
1"
#101
b110000 !
b110000 0
b110000 \
#102
b110100 X
b110100 Y
#104
0"
#108
1"
#109
b110100 !
b110100 0
b110100 \
#110
b111000 X
b111000 Y
#112
0"
#116
1"
#117
b111000 !
b111000 0
b111000 \
#118
b111100 X
b111100 Y
#120
0"
#124
1"
#125
b111100 !
b111100 0
b111100 \
#126
b1000000 X
b1000000 Y
#128
0"
#132
1"
#133
b1000000 !
b1000000 0
b1000000 \
#134
b1000100 X
b1000100 Y
#136
0"
#140
1"
#141
b1000100 !
b1000100 0
b1000100 \
#142
b1001000 X
b1001000 Y
#144
0"
#148
1"
#149
b1001000 !
b1001000 0
b1001000 \
#150
b1001100 X
b1001100 Y
#152
0"
#156
1"
#157
b1001100 !
b1001100 0
b1001100 \
#158
b1010000 X
b1010000 Y
#160
0"
#164
1"
#165
b1010000 !
b1010000 0
b1010000 \
#166
b1010100 X
b1010100 Y
#168
0"
#172
1"
#173
b1010100 !
b1010100 0
b1010100 \
#174
b1011000 X
b1011000 Y
#176
0"
#180
1"
#181
b1011000 !
b1011000 0
b1011000 \
#182
b1011100 X
b1011100 Y
#184
0"
#188
1"
#189
b1011100 !
b1011100 0
b1011100 \
#190
b1100000 X
b1100000 Y
#192
0"
#196
1"
#197
b1100000 !
b1100000 0
b1100000 \
#198
b1100100 X
b1100100 Y
#200
0"
#204
1"
#205
b1100100 !
b1100100 0
b1100100 \
#206
b1101000 X
b1101000 Y
#208
0"
#212
1"
#213
b1101000 !
b1101000 0
b1101000 \
#214
b1101100 X
b1101100 Y
#216
0"
#220
1"
#221
b1101100 !
b1101100 0
b1101100 \
#222
b1110000 X
b1110000 Y
#224
0"
#228
1"
#229
b1110000 !
b1110000 0
b1110000 \
#230
b1110100 X
b1110100 Y
#232
0"
#236
1"
#237
b1110100 !
b1110100 0
b1110100 \
#238
b1111000 X
b1111000 Y
#240
0"
#244
1"
#245
b1111000 !
b1111000 0
b1111000 \
#246
b1111100 X
b1111100 Y
#248
0"
#252
1"
#253
b1111100 !
b1111100 0
b1111100 \
#254
b10000000 X
b10000000 Y
#256
0"
#260
1"
#261
b10000000 !
b10000000 0
b10000000 \
#262
b10000100 X
b10000100 Y
#264
0"
#268
1"
#269
b10000100 !
b10000100 0
b10000100 \
#270
b10001000 X
b10001000 Y
#272
0"
#276
1"
#277
b10001000 !
b10001000 0
b10001000 \
#278
b10001100 X
b10001100 Y
#280
0"
#284
1"
#285
b10001100 !
b10001100 0
b10001100 \
#286
b10010000 X
b10010000 Y
#288
0"
#292
1"
#293
b10010000 !
b10010000 0
b10010000 \
#294
b10010100 X
b10010100 Y
#296
0"
#300
1"
#301
b10010100 !
b10010100 0
b10010100 \
#302
b10011000 X
b10011000 Y
#304
0"
#308
1"
#309
b10011000 !
b10011000 0
b10011000 \
#310
b10011100 X
b10011100 Y
#312
0"
#316
1"
#317
b10011100 !
b10011100 0
b10011100 \
#318
b10100000 X
b10100000 Y
#320
0"
#324
1"
#325
b10100000 !
b10100000 0
b10100000 \
#326
b10100100 X
b10100100 Y
#328
0"
#332
1"
#333
b10100100 !
b10100100 0
b10100100 \
#334
b10101000 X
b10101000 Y
#336
0"
#340
1"
#341
b10101000 !
b10101000 0
b10101000 \
#342
b10101100 X
b10101100 Y
#344
0"
#348
1"
#349
b10101100 !
b10101100 0
b10101100 \
#350
b10110000 X
b10110000 Y
#352
0"
#356
1"
#357
b10110000 !
b10110000 0
b10110000 \
#358
b10110100 X
b10110100 Y
#360
0"
#364
1"
#365
b10110100 !
b10110100 0
b10110100 \
#366
b10111000 X
b10111000 Y
#368
0"
#372
1"
#373
b10111000 !
b10111000 0
b10111000 \
#374
b10111100 X
b10111100 Y
#376
0"
#380
1"
#381
b10111100 !
b10111100 0
b10111100 \
#382
b11000000 X
b11000000 Y
#384
0"
#388
1"
#389
b11000000 !
b11000000 0
b11000000 \
#390
b11000100 X
b11000100 Y
#392
0"
#396
1"
#397
b11000100 !
b11000100 0
b11000100 \
#398
b11001000 X
b11001000 Y
#400
0"
#404
1"
#405
b11001000 !
b11001000 0
b11001000 \
#406
b11001100 X
b11001100 Y
#408
0"
#412
1"
#413
b11001100 !
b11001100 0
b11001100 \
#414
b11010000 X
b11010000 Y
#416
0"
#420
1"
#421
b11010000 !
b11010000 0
b11010000 \
#422
b11010100 X
b11010100 Y
#424
0"
#428
1"
#429
b11010100 !
b11010100 0
b11010100 \
#430
b11011000 X
b11011000 Y
#432
0"
#436
1"
#437
b11011000 !
b11011000 0
b11011000 \
#438
b11011100 X
b11011100 Y
#440
0"
#444
1"
#445
b11011100 !
b11011100 0
b11011100 \
#446
b11100000 X
b11100000 Y
#448
0"
#452
1"
#453
b11100000 !
b11100000 0
b11100000 \
#454
b11100100 X
b11100100 Y
#456
0"
#460
1"
#461
b11100100 !
b11100100 0
b11100100 \
#462
b11101000 X
b11101000 Y
#464
0"
#468
1"
#469
b11101000 !
b11101000 0
b11101000 \
#470
b11101100 X
b11101100 Y
#472
0"
#476
1"
#477
b11101100 !
b11101100 0
b11101100 \
#478
b11110000 X
b11110000 Y
#480
0"
#484
1"
#485
b11110000 !
b11110000 0
b11110000 \
#486
b11110100 X
b11110100 Y
#488
0"
#492
1"
#493
b11110100 !
b11110100 0
b11110100 \
#494
b11111000 X
b11111000 Y
#496
0"
#500
1"
#501
b11111000 !
b11111000 0
b11111000 \
#502
b11111100 X
b11111100 Y
