part5/cpu_wavedata.vcd
$date
	Sun May 25 13:28:08 2025
$end
$version
	Icarus Verilog
$end
$timescale
	1s
$end
$scope module cpu_tb $end
$var wire 32 ! PC [31:0] $end
$var reg 1 " CLK $end
$var reg 32 # INSTRUCTION [31:0] $end
$var reg 1 $ RESET $end
$scope module mycpu $end
$var wire 1 " CLK $end
$var wire 32 % INSTRUCTION [31:0] $end
$var wire 1 $ RESET $end
$var wire 8 & mux2_out [7:0] $end
$var wire 8 ' mux1_out [7:0] $end
$var wire 1 ( ZERO $end
$var wire 3 ) WRITEREG [2:0] $end
$var wire 1 * WRITEENABLE $end
$var wire 8 + WRITEDATA [7:0] $end
$var wire 8 , REGOUT2 [7:0] $end
$var wire 8 - REGOUT1 [7:0] $end
$var wire 3 . READREG2 [2:0] $end
$var wire 3 / READREG1 [2:0] $end
$var wire 32 0 PC [31:0] $end
$var wire 8 1 OPCODE [7:0] $end
$var wire 8 2 OFFSET [7:0] $end
$var wire 1 3 NEMUX $end
$var wire 8 4 NEGATIVENUMBER [7:0] $end
$var wire 1 5 JUMP $end
$var wire 8 6 IMMEDIATE [7:0] $end
$var wire 1 7 BRANCH $end
$var wire 1 8 ALUSRC $end
$var wire 3 9 ALUOP [2:0] $end
$scope module ALU $end
$var wire 1 ( ZERO $end
$var wire 3 : SELECT [2:0] $end
$var wire 8 ; RESULT [7:0] $end
$var wire 8 < I3 [7:0] $end
$var wire 8 = I2 [7:0] $end
$var wire 8 > I1 [7:0] $end
$var wire 8 ? I0 [7:0] $end
$var wire 8 @ DATA2 [7:0] $end
$var wire 8 A DATA1 [7:0] $end
$upscope $end
$scope module DECODER $end
$var wire 32 B INSTRUCTION [31:0] $end
$var reg 8 C IMMEDIATE [7:0] $end
$var reg 8 D OFFSET [7:0] $end
$var reg 8 E OPCODE [7:0] $end
$var reg 3 F READREG1 [2:0] $end
$var reg 3 G READREG2 [2:0] $end
$var reg 3 H WRITEREG [2:0] $end
$upscope $end
$scope module MUX1 $end
$var wire 1 3 select $end
$var wire 8 I OUTPUT [7:0] $end
$var wire 8 J DATA2 [7:0] $end
$var wire 8 K DATA1 [7:0] $end
$upscope $end
$scope module MUX2 $end
$var wire 8 L DATA1 [7:0] $end
$var wire 8 M DATA2 [7:0] $end
$var wire 1 8 select $end
$var wire 8 N OUTPUT [7:0] $end
$upscope $end
$scope module PCUNIT $end
$var wire 1 O Branching $end
$var wire 1 " CLK $end
$var wire 8 P OFFSET [7:0] $end
$var wire 1 $ RESET $end
$var wire 1 ( ZERO $end
$var wire 1 Q selector $end
$var wire 32 R nextpc [31:0] $end
$var wire 32 S PC_plus_four [31:0] $end
$var wire 32 T OFFSET_EXTENDED [31:0] $end
$var wire 1 5 JUMP $end
$var wire 32 U BRANCH_TARGET [31:0] $end
$var wire 1 7 BRANCH $end
$var reg 32 V PC [31:0] $end
$upscope $end
$scope module REGFILE $end
$var wire 1 " CLK $end
$var wire 8 W IN [7:0] $end
$var wire 3 X INADDRESS [2:0] $end
$var wire 3 Y OUT1ADDRESS [2:0] $end
$var wire 3 Z OUT2ADDRESS [2:0] $end
$var wire 1 $ RESET $end
$var wire 1 * WRITE $end
$var reg 8 [ OUT1 [7:0] $end
$var reg 8 \ OUT2 [7:0] $end
$var reg 8 ] register0 [7:0] $end
$var reg 8 ^ register1 [7:0] $end
$var reg 8 _ register2 [7:0] $end
$var reg 8 ` register3 [7:0] $end
$var reg 8 a register4 [7:0] $end
$var reg 8 b register5 [7:0] $end
$var reg 8 c register6 [7:0] $end
$var reg 8 d register7 [7:0] $end
$upscope $end
$scope module control $end
$var wire 8 e OPCODE [7:0] $end
$var reg 3 f ALUOP [2:0] $end
$var reg 1 8 ALUSRC $end
$var reg 1 7 BRANCH $end
$var reg 1 5 JUMP $end
$var reg 1 3 NEMUX $end
$var reg 1 * WRITEENABLE $end
$upscope $end
$scope module twos $end
$var wire 8 g DATA_IN [7:0] $end
$var reg 8 h DATA_OUT [7:0] $end
$upscope $end
$upscope $end
$upscope $end
$enddefinitions $end
$comment Show the parameter values. $end
$dumpall
$end
#0
$dumpvars
bx h
bx g
bx f
bx e
bx d
bx c
bx b
bx a
bx `
bx _
bx ^
bx ]
bx \
bx [
bx Z
bx Y
bx X
bx W
bx V
bx U
bx00 T
bx S
bx R
xQ
bx P
xO
bx N
bx M
bx L
bx K
bx J
bx I
bx H
bx G
bx F
bx E
bx D
bx C
bx B
bx A
bx @
bx ?
bx >
bx =
bx <
bx ;
bx :
bx 9
x8
x7
bx 6
x5
bx 4
x3
bx 2
bx 1
bx 0
bx /
bx .
bx -
bx ,
bx +
x*
bx )
x(
bx '
bx &
bx %
0$
bx #
0"
bx !
$end
#2
1$
#4
1"
#5
b0 !
b0 0
b0 V
b0 d
b0 c
b0 b
b0 a
b0 `
b0 _
b0 ^
b0 ]
#6
b100 S
0$
#7
b10000 T
b100 2
b100 D
b100 P
b1010 6
b1010 C
b1010 L
b100 )
b100 H
b100 X
b10 .
b10 G
b10 Z
b0 /
b0 F
b0 Y
b101 1
b101 E
b101 e
b101000001000000000000001010 #
b101000001000000000000001010 %
b101000001000000000000001010 B
#8
b100 R
0Q
0O
b1010 &
b1010 @
b1010 N
05
07
03
08
b0 9
b0 :
b0 f
1*
0"
#9
0(
b1010 +
b1010 ;
b1010 W
b0 '
b0 I
b0 M
b1010 <
b0 =
b1010 ?
b10100 U
b0 ,
b0 K
b0 \
b0 g
b0 -
b0 A
b0 [
#10
b0 4
b0 J
b0 h
b1010 >
#12
1"
#13
b100 !
b100 0
b100 V
b1010 a
#14
b1000 R
b1000 S
#15
b10100 T
b1 &
b1 @
b1 N
b101 2
b101 D
b101 P
b1 6
b1 C
b1 L
b101 )
b101 H
b101 X
b1 .
b1 G
b1 Z
b101000001010000000000000001 #
b101000001010000000000000001 %
b101000001010000000000000001 B
b11000 U
#16
b1 +
b1 ;
b1 W
b1 <
b1 ?
0"
#17
b1 >
b11100 U
#20
1"
#21
b1 b
b1000 !
b1000 0
b1000 V
#22
b1100 R
b1100 S
#23
b11000 T
b110 2
b110 D
b110 P
b110 )
b110 H
b110 X
b101000001100000000000000001 #
b101000001100000000000000001 %
b101000001100000000000000001 B
b100000 U
#24
0"
#25
b100100 U
#28
1"
#29
b1100 !
b1100 0
b1100 V
b1 c
#30
b10000 R
b10000 S
#31
b11100 T
b1001 &
b1001 @
b1001 N
b111 2
b111 D
b111 P
b1001 6
b1001 C
b1001 L
b111 )
b111 H
b111 X
b101000001110000000000001001 #
b101000001110000000000001001 %
b101000001110000000000001001 B
b101000 U
#32
b1001 +
b1001 ;
b1001 W
b1001 <
b1001 ?
0"
#33
b1001 >
b101100 U
#36
1"
#37
b1001 d
b10000 !
b10000 0
b10000 V
#38
b10100 R
b10100 S
#39
b10000 T
b101 &
b101 @
b101 N
b100 2
b100 D
b100 P
b101 6
b101 C
b101 L
b100 )
b100 H
b100 X
b101 .
b101 G
b101 Z
b100 /
b100 F
b100 Y
b1 1
b1 E
b1 e
b1000001000000010000000101 #
b1000001000000010000000101 %
b1000001000000010000000101 B
b110000 U
#40
b0 &
b0 @
b0 N
b101 <
b101 ?
13
18
b1 9
b1 :
b1 f
0"
#41
b1010 +
b1010 ;
b1010 W
b1010 <
b0 ?
b1010 >
b100100 U
b1 ,
b1 K
b1 \
b1 g
b1010 -
b1010 A
b1010 [
#42
b11111111 &
b11111111 @
b11111111 N
b11111111 '
b11111111 I
b11111111 M
b11111111 4
b11111111 J
b11111111 h
#43
b1010 =
b11111111 <
b11111111 ?
#44
b1001 +
b1001 ;
b1001 W
b1001 >
1"
#45
b10100 !
b10100 0
b10100 V
b1001 a
#46
b11000 R
b11000 S
b1001 -
b1001 A
b1001 [
#47
b100 T
b1 2
b1 D
b1 P
b110 6
b110 C
b110 L
b1 )
b1 H
b1 X
b110 .
b110 G
b110 Z
b111 1
b111 E
b111 e
b1001 =
b111000000010000010000000110 #
b111000000010000010000000110 %
b111000000010000010000000110 B
b101000 U
#48
b1000 +
b1000 ;
b1000 W
17
0*
b1000 >
0"
#49
b11100 U
#52
1"
#53
b11000 !
b11000 0
b11000 V
#54
b11100 R
b11100 S
#55
b11111111111111111111111111110100 T
b11111101 2
b11111101 D
b11111101 P
b0 6
b0 C
b0 L
b101 )
b101 H
b101 X
b0 .
b0 G
b0 Z
b0 /
b0 F
b0 Y
b110 1
b110 E
b110 e
b110111111010000000000000000 #
b110111111010000000000000000 %
b110111111010000000000000000 B
b100000 U
#56
b100000 R
1Q
b1 '
b1 I
b1 M
b0 &
b0 @
b0 N
b11111111 +
b11111111 ;
b11111111 W
15
07
03
08
b0 9
b0 :
b0 f
0"
#57
1(
b0 +
b0 ;
b0 W
b10000 R
b0 '
b0 I
b0 M
b0 =
b0 <
b0 ?
b10000 U
b0 ,
b0 K
b0 \
b0 g
b0 -
b0 A
b0 [
#58
b0 4
b0 J
b0 h
b0 >
#60
1"
#61
b10000 !
b10000 0
b10000 V
#62
b10100 S
#63
b10000 T
b101 &
b101 @
b101 N
b100 2
b100 D
b100 P
b101 6
b101 C
b101 L
b100 )
b100 H
b100 X
b101 .
b101 G
b101 Z
b100 /
b100 F
b100 Y
b1 1
b1 E
b1 e
b1000 R
b1000001000000010000000101 #
b1000001000000010000000101 %
b1000001000000010000000101 B
b1000 U
#64
b10100 R
0Q
b0 &
b0 @
b0 N
b101 <
b101 ?
05
13
18
b1 9
b1 :
b1 f
1*
0"
#65
0(
b1001 +
b1001 ;
b1001 W
b1001 <
b0 ?
b1001 >
b100100 U
b1 ,
b1 K
b1 \
b1 g
b1001 -
b1001 A
b1001 [
#66
b11111111 &
b11111111 @
b11111111 N
b11111111 '
b11111111 I
b11111111 M
b11111111 4
b11111111 J
b11111111 h
#67
b11111111 <
b1001 =
b11111111 ?
#68
b1000 +
b1000 ;
b1000 W
b1000 >
1"
#69
b1000 a
b10100 !
b10100 0
b10100 V
#70
b11000 R
b11000 S
b1000 -
b1000 A
b1000 [
#71
b100 T
b1 2
b1 D
b1 P
b110 6
b110 C
b110 L
b1 )
b1 H
b1 X
b110 .
b110 G
b110 Z
b111 1
b111 E
b111 e
b1000 =
b111000000010000010000000110 #
b111000000010000010000000110 %
b111000000010000010000000110 B
b101000 U
#72
b111 +
b111 ;
b111 W
17
0*
b111 >
0"
#73
b11100 U
#76
1"
#77
b11000 !
b11000 0
b11000 V
#78
b11100 R
b11100 S
#79
b11111111111111111111111111110100 T
b11111101 2
b11111101 D
b11111101 P
b0 6
b0 C
b0 L
b101 )
b101 H
b101 X
b0 .
b0 G
b0 Z
b0 /
b0 F
b0 Y
b110 1
b110 E
b110 e
b110111111010000000000000000 #
b110111111010000000000000000 %
b110111111010000000000000000 B
b100000 U
#80
b100000 R
1Q
b1 '
b1 I
b1 M
b0 &
b0 @
b0 N
b11111111 +
b11111111 ;
b11111111 W
15
07
03
08
b0 9
b0 :
b0 f
0"
#81
1(
b0 +
b0 ;
b0 W
b10000 R
b0 '
b0 I
b0 M
b0 <
b0 =
b0 ?
b10000 U
b0 ,
b0 K
b0 \
b0 g
b0 -
b0 A
b0 [
#82
b0 4
b0 J
b0 h
b0 >
#84
1"
#85
b10000 !
b10000 0
b10000 V
#86
b10100 S
#87
b10000 T
b101 &
b101 @
b101 N
b100 2
b100 D
b100 P
b101 6
b101 C
b101 L
b100 )
b100 H
b100 X
b101 .
b101 G
b101 Z
b100 /
b100 F
b100 Y
b1 1
b1 E
b1 e
b1000 R
b1000001000000010000000101 #
b1000001000000010000000101 %
b1000001000000010000000101 B
b1000 U
#88
b10100 R
0Q
b0 &
b0 @
b0 N
b101 <
b101 ?
05
13
18
b1 9
b1 :
b1 f
1*
0"
#89
0(
b1000 +
b1000 ;
b1000 W
b1000 <
b0 ?
b1000 >
b100100 U
b1 ,
b1 K
b1 \
b1 g
b1000 -
b1000 A
b1000 [
#90
b11111111 &
b11111111 @
b11111111 N
b11111111 '
b11111111 I
b11111111 M
b11111111 4
b11111111 J
b11111111 h
#91
b1000 =
b11111111 <
b11111111 ?
#92
b111 +
b111 ;
b111 W
b111 >
1"
#93
b111 a
b10100 !
b10100 0
b10100 V
#94
b11000 R
b11000 S
b111 -
b111 A
b111 [
#95
b100 T
b1 2
b1 D
b1 P
b110 6
b110 C
b110 L
b1 )
b1 H
b1 X
b110 .
b110 G
b110 Z
b111 1
b111 E
b111 e
b111 =
b111000000010000010000000110 #
b111000000010000010000000110 %
b111000000010000010000000110 B
b101000 U
#96
b110 +
b110 ;
b110 W
17
0*
b110 >
0"
#97
b11100 U
#100
1"
#101
b11000 !
b11000 0
b11000 V
#102
b11100 R
b11100 S
#103
b11111111111111111111111111110100 T
b11111101 2
b11111101 D
b11111101 P
b0 6
b0 C
b0 L
b101 )
b101 H
b101 X
b0 .
b0 G
b0 Z
b0 /
b0 F
b0 Y
b110 1
b110 E
b110 e
b110111111010000000000000000 #
b110111111010000000000000000 %
b110111111010000000000000000 B
b100000 U
#104
b100000 R
1Q
b1 '
b1 I
b1 M
b0 &
b0 @
b0 N
b11111111 +
b11111111 ;
b11111111 W
15
07
03
08
b0 9
b0 :
b0 f
0"
#105
1(
b0 +
b0 ;
b0 W
b10000 R
b0 '
b0 I
b0 M
b0 =
b0 <
b0 ?
b10000 U
b0 ,
b0 K
b0 \
b0 g
b0 -
b0 A
b0 [
#106
b0 4
b0 J
b0 h
b0 >
#108
1"
#109
b10000 !
b10000 0
b10000 V
#110
b10100 S
#111
b10000 T
b101 &
b101 @
b101 N
b100 2
b100 D
b100 P
b101 6
b101 C
b101 L
b100 )
b100 H
b100 X
b101 .
b101 G
b101 Z
b100 /
b100 F
b100 Y
b1 1
b1 E
b1 e
b1000 R
b1000001000000010000000101 #
b1000001000000010000000101 %
b1000001000000010000000101 B
b1000 U
#112
b10100 R
0Q
b0 &
b0 @
b0 N
b101 <
b101 ?
05
13
18
b1 9
b1 :
b1 f
1*
0"
#113
0(
b111 +
b111 ;
b111 W
b111 <
b0 ?
b111 >
b100100 U
b1 ,
b1 K
b1 \
b1 g
b111 -
b111 A
b111 [
#114
b11111111 &
b11111111 @
b11111111 N
b11111111 '
b11111111 I
b11111111 M
b11111111 4
b11111111 J
b11111111 h
#115
b11111111 <
b111 =
b11111111 ?
#116
b110 +
b110 ;
b110 W
b110 >
1"
#117
b110 a
b10100 !
b10100 0
b10100 V
#118
b11000 R
b11000 S
b110 -
b110 A
b110 [
#119
b100 T
b1 2
b1 D
b1 P
b110 6
b110 C
b110 L
b1 )
b1 H
b1 X
b110 .
b110 G
b110 Z
b111 1
b111 E
b111 e
b110 =
b111000000010000010000000110 #
b111000000010000010000000110 %
b111000000010000010000000110 B
b101000 U
#120
b101 +
b101 ;
b101 W
17
0*
b101 >
0"
#121
b11100 U
#124
1"
#125
b11000 !
b11000 0
b11000 V
#126
b11100 R
b11100 S
#127
b11111111111111111111111111110100 T
b11111101 2
b11111101 D
b11111101 P
b0 6
b0 C
b0 L
b101 )
b101 H
b101 X
b0 .
b0 G
b0 Z
b0 /
b0 F
b0 Y
b110 1
b110 E
b110 e
b110111111010000000000000000 #
b110111111010000000000000000 %
b110111111010000000000000000 B
b100000 U
#128
b100000 R
1Q
b1 '
b1 I
b1 M
b0 &
b0 @
b0 N
b11111111 +
b11111111 ;
b11111111 W
15
07
03
08
b0 9
b0 :
b0 f
0"
#129
1(
b0 +
b0 ;
b0 W
b10000 R
b0 '
b0 I
b0 M
b0 <
b0 =
b0 ?
b10000 U
b0 ,
b0 K
b0 \
b0 g
b0 -
b0 A
b0 [
#130
b0 4
b0 J
b0 h
b0 >
#132
1"
#133
b10000 !
b10000 0
b10000 V
#134
b10100 S
#135
b10000 T
b101 &
b101 @
b101 N
b100 2
b100 D
b100 P
b101 6
b101 C
b101 L
b100 )
b100 H
b100 X
b101 .
b101 G
b101 Z
b100 /
b100 F
b100 Y
b1 1
b1 E
b1 e
b1000 R
b1000001000000010000000101 #
b1000001000000010000000101 %
b1000001000000010000000101 B
b1000 U
#136
b10100 R
0Q
b0 &
b0 @
b0 N
b101 <
b101 ?
05
13
18
b1 9
b1 :
b1 f
1*
0"
#137
0(
b110 +
b110 ;
b110 W
b110 <
b0 ?
b110 >
b100100 U
b1 ,
b1 K
b1 \
b1 g
b110 -
b110 A
b110 [
#138
b11111111 &
b11111111 @
b11111111 N
b11111111 '
b11111111 I
b11111111 M
b11111111 4
b11111111 J
b11111111 h
#139
b110 =
b11111111 <
b11111111 ?
#140
b101 +
b101 ;
b101 W
b101 >
1"
#141
b101 a
b10100 !
b10100 0
b10100 V
#142
b11000 R
b11000 S
b101 -
b101 A
b101 [
#143
b100 T
b1 2
b1 D
b1 P
b110 6
b110 C
b110 L
b1 )
b1 H
b1 X
b110 .
b110 G
b110 Z
b111 1
b111 E
b111 e
b101 =
b111000000010000010000000110 #
b111000000010000010000000110 %
b111000000010000010000000110 B
b101000 U
#144
b100 +
b100 ;
b100 W
17
0*
b100 >
0"
#145
b11100 U
#148
1"
#149
b11000 !
b11000 0
b11000 V
#150
b11100 R
b11100 S
#151
b11111111111111111111111111110100 T
b11111101 2
b11111101 D
b11111101 P
b0 6
b0 C
b0 L
b101 )
b101 H
b101 X
b0 .
b0 G
b0 Z
b0 /
b0 F
b0 Y
b110 1
b110 E
b110 e
b110111111010000000000000000 #
b110111111010000000000000000 %
b110111111010000000000000000 B
b100000 U
#152
b100000 R
1Q
b1 '
b1 I
b1 M
b0 &
b0 @
b0 N
b11111111 +
b11111111 ;
b11111111 W
15
07
03
08
b0 9
b0 :
b0 f
0"
#153
1(
b0 +
b0 ;
b0 W
b10000 R
b0 '
b0 I
b0 M
b0 =
b0 <
b0 ?
b10000 U
b0 ,
b0 K
b0 \
b0 g
b0 -
b0 A
b0 [
#154
b0 4
b0 J
b0 h
b0 >
#156
1"
#157
b10000 !
b10000 0
b10000 V
#158
b10100 S
#159
b10000 T
b101 &
b101 @
b101 N
b100 2
b100 D
b100 P
b101 6
b101 C
b101 L
b100 )
b100 H
b100 X
b101 .
b101 G
b101 Z
b100 /
b100 F
b100 Y
b1 1
b1 E
b1 e
b1000 R
b1000001000000010000000101 #
b1000001000000010000000101 %
b1000001000000010000000101 B
b1000 U
#160
b10100 R
0Q
b0 &
b0 @
b0 N
b101 <
b101 ?
05
13
18
b1 9
b1 :
b1 f
1*
0"
#161
0(
b101 +
b101 ;
b101 W
b0 ?
b101 >
b100100 U
b1 ,
b1 K
b1 \
b1 g
b101 -
b101 A
b101 [
#162
b11111111 &
b11111111 @
b11111111 N
b11111111 '
b11111111 I
b11111111 M
b11111111 4
b11111111 J
b11111111 h
#163
b11111111 <
b101 =
b11111111 ?
#164
b100 +
b100 ;
b100 W
b100 >
1"
#165
b100 a
b10100 !
b10100 0
b10100 V
#166
b11000 R
b11000 S
b100 -
b100 A
b100 [
#167
b100 T
b1 2
b1 D
b1 P
b110 6
b110 C
b110 L
b1 )
b1 H
b1 X
b110 .
b110 G
b110 Z
b111 1
b111 E
b111 e
b100 =
b111000000010000010000000110 #
b111000000010000010000000110 %
b111000000010000010000000110 B
b101000 U
#168
b11 +
b11 ;
b11 W
17
0*
b11 >
0"
#169
b11100 U
#172
1"
#173
b11000 !
b11000 0
b11000 V
#174
b11100 R
b11100 S
#175
b11111111111111111111111111110100 T
b11111101 2
b11111101 D
b11111101 P
b0 6
b0 C
b0 L
b101 )
b101 H
b101 X
b0 .
b0 G
b0 Z
b0 /
b0 F
b0 Y
b110 1
b110 E
b110 e
b110111111010000000000000000 #
b110111111010000000000000000 %
b110111111010000000000000000 B
b100000 U
#176
b100000 R
1Q
b1 '
b1 I
b1 M
b0 &
b0 @
b0 N
b11111111 +
b11111111 ;
b11111111 W
15
07
03
08
b0 9
b0 :
b0 f
0"
#177
1(
b0 +
b0 ;
b0 W
b10000 R
b0 '
b0 I
b0 M
b0 <
b0 =
b0 ?
b10000 U
b0 ,
b0 K
b0 \
b0 g
b0 -
b0 A
b0 [
#178
b0 4
b0 J
b0 h
b0 >
#180
1"
#181
b10000 !
b10000 0
b10000 V
#182
b10100 S
#183
b10000 T
b101 &
b101 @
b101 N
b100 2
b100 D
b100 P
b101 6
b101 C
b101 L
b100 )
b100 H
b100 X
b101 .
b101 G
b101 Z
b100 /
b100 F
b100 Y
b1 1
b1 E
b1 e
b1000 R
b1000001000000010000000101 #
b1000001000000010000000101 %
b1000001000000010000000101 B
b1000 U
#184
b10100 R
0Q
b0 &
b0 @
b0 N
b101 <
b101 ?
05
13
18
b1 9
b1 :
b1 f
1*
0"
#185
0(
b100 +
b100 ;
b100 W
b100 <
b0 ?
b100 >
b100100 U
b1 ,
b1 K
b1 \
b1 g
b100 -
b100 A
b100 [
#186
b11111111 &
b11111111 @
b11111111 N
b11111111 '
b11111111 I
b11111111 M
b11111111 4
b11111111 J
b11111111 h
#187
b100 =
b11111111 <
b11111111 ?
#188
b11 +
b11 ;
b11 W
b11 >
1"
#189
b11 a
b10100 !
b10100 0
b10100 V
#190
b11000 R
b11000 S
b11 -
b11 A
b11 [
#191
b100 T
b1 2
b1 D
b1 P
b110 6
b110 C
b110 L
b1 )
b1 H
b1 X
b110 .
b110 G
b110 Z
b111 1
b111 E
b111 e
b11 =
b111000000010000010000000110 #
b111000000010000010000000110 %
b111000000010000010000000110 B
b101000 U
#192
b10 +
b10 ;
b10 W
17
0*
b10 >
0"
#193
b11100 U
#196
1"
#197
b11000 !
b11000 0
b11000 V
#198
b11100 R
b11100 S
#199
b11111111111111111111111111110100 T
b11111101 2
b11111101 D
b11111101 P
b0 6
b0 C
b0 L
b101 )
b101 H
b101 X
b0 .
b0 G
b0 Z
b0 /
b0 F
b0 Y
b110 1
b110 E
b110 e
b110111111010000000000000000 #
b110111111010000000000000000 %
b110111111010000000000000000 B
b100000 U
#200
b100000 R
1Q
b1 '
b1 I
b1 M
b0 &
b0 @
b0 N
b11111111 +
b11111111 ;
b11111111 W
15
07
03
08
b0 9
b0 :
b0 f
0"
#201
1(
b0 +
b0 ;
b0 W
b10000 R
b0 '
b0 I
b0 M
b0 =
b0 <
b0 ?
b10000 U
b0 ,
b0 K
b0 \
b0 g
b0 -
b0 A
b0 [
#202
b0 4
b0 J
b0 h
b0 >
#204
1"
#205
b10000 !
b10000 0
b10000 V
#206
b10100 S
#207
b10000 T
b101 &
b101 @
b101 N
b100 2
b100 D
b100 P
b101 6
b101 C
b101 L
b100 )
b100 H
b100 X
b101 .
b101 G
b101 Z
b100 /
b100 F
b100 Y
b1 1
b1 E
b1 e
b1000 R
b1000001000000010000000101 #
b1000001000000010000000101 %
b1000001000000010000000101 B
b1000 U
#208
b10100 R
0Q
b0 &
b0 @
b0 N
b101 <
b101 ?
05
13
18
b1 9
b1 :
b1 f
1*
0"
#209
0(
b11 +
b11 ;
b11 W
b11 <
b0 ?
b11 >
b100100 U
b1 ,
b1 K
b1 \
b1 g
b11 -
b11 A
b11 [
#210
b11111111 &
b11111111 @
b11111111 N
b11111111 '
b11111111 I
b11111111 M
b11111111 4
b11111111 J
b11111111 h
#211
b11111111 <
b11 =
b11111111 ?
#212
b10 +
b10 ;
b10 W
b10 >
1"
#213
b10 a
b10100 !
b10100 0
b10100 V
#214
b11000 R
b11000 S
b10 -
b10 A
b10 [
#215
b100 T
b1 2
b1 D
b1 P
b110 6
b110 C
b110 L
b1 )
b1 H
b1 X
b110 .
b110 G
b110 Z
b111 1
b111 E
b111 e
b10 =
b111000000010000010000000110 #
b111000000010000010000000110 %
b111000000010000010000000110 B
b101000 U
#216
b1 +
b1 ;
b1 W
17
0*
b1 >
0"
#217
b11100 U
#220
1"
#221
b11000 !
b11000 0
b11000 V
#222
b11100 R
b11100 S
#223
b11111111111111111111111111110100 T
b11111101 2
b11111101 D
b11111101 P
b0 6
b0 C
b0 L
b101 )
b101 H
b101 X
b0 .
b0 G
b0 Z
b0 /
b0 F
b0 Y
b110 1
b110 E
b110 e
b110111111010000000000000000 #
b110111111010000000000000000 %
b110111111010000000000000000 B
b100000 U
#224
b100000 R
1Q
b1 '
b1 I
b1 M
b0 &
b0 @
b0 N
b11111111 +
b11111111 ;
b11111111 W
15
07
03
08
b0 9
b0 :
b0 f
0"
#225
1(
b0 +
b0 ;
b0 W
b10000 R
b0 '
b0 I
b0 M
b0 <
b0 =
b0 ?
b10000 U
b0 ,
b0 K
b0 \
b0 g
b0 -
b0 A
b0 [
#226
b0 4
b0 J
b0 h
b0 >
#228
1"
#229
b10000 !
b10000 0
b10000 V
#230
b10100 S
#231
b10000 T
b101 &
b101 @
b101 N
b100 2
b100 D
b100 P
b101 6
b101 C
b101 L
b100 )
b100 H
b100 X
b101 .
b101 G
b101 Z
b100 /
b100 F
b100 Y
b1 1
b1 E
b1 e
b1000 R
b1000001000000010000000101 #
b1000001000000010000000101 %
b1000001000000010000000101 B
b1000 U
#232
b10100 R
0Q
b0 &
b0 @
b0 N
b101 <
b101 ?
05
13
18
b1 9
b1 :
b1 f
1*
0"
#233
0(
b10 +
b10 ;
b10 W
b10 <
b0 ?
b10 >
b100100 U
b1 ,
b1 K
b1 \
b1 g
b10 -
b10 A
b10 [
#234
b11111111 &
b11111111 @
b11111111 N
b11111111 '
b11111111 I
b11111111 M
b11111111 4
b11111111 J
b11111111 h
#235
b10 =
b11111111 <
b11111111 ?
#236
b1 +
b1 ;
b1 W
b1 >
1"
#237
b1 a
b10100 !
b10100 0
b10100 V
#238
b11000 R
b11000 S
b1 -
b1 A
b1 [
#239
b100 T
b1 2
b1 D
b1 P
b110 6
b110 C
b110 L
b1 )
b1 H
b1 X
b110 .
b110 G
b110 Z
b111 1
b111 E
b111 e
b1 =
b111000000010000010000000110 #
b111000000010000010000000110 %
b111000000010000010000000110 B
b101000 U
#240
b101000 R
1Q
1O
1(
b0 +
b0 ;
b0 W
17
0*
b0 >
0"
#241
b11100 R
b11100 U
#244
1"
#245
b11100 !
b11100 0
b11100 V
#246
b100000 S
#247
b111 6
b111 C
b111 L
b111 .
b111 G
b111 Z
b0 1
b0 E
b0 e
b100100 R
b10000010000000111 #
b10000010000000111 %
b10000010000000111 B
b100100 U
#248
b100000 R
0Q
b1 &
b1 @
b1 N
0O
b1 '
b1 I
b1 M
07
03
1*
0"
#249
b1001 &
b1001 @
b1001 N
b1001 '
b1001 I
b1001 M
b1 <
b1 ?
b1001 ,
b1001 K
b1001 \
b1001 g
#250
0(
b1010 +
b1010 ;
b1010 W
b1001 <
b1001 ?
b11110111 4
b11110111 J
b11110111 h
b1010 >
#252
1"
#253
b1010 ^
b100000 !
b100000 0
b100000 V
#254
b100100 R
b100100 S
#255
bx00 T
bx 2
bx D
bx P
bx 6
bx C
bx L
bx )
bx H
bx X
bx .
bx G
bx Z
bx /
bx F
bx Y
bx 1
bx E
bx e
bx #
bx %
bx B
b101000 U
#256
0"
#257
bx U
#260
1"
#261
b100100 !
b100100 0
b100100 V
#262
b101000 R
b101000 S
#264
0"
#268
1"
#269
b101000 !
b101000 0
b101000 V
#270
b101100 R
b101100 S
#272
0"
#276
1"
#277
b101100 !
b101100 0
b101100 V
#278
b110000 R
b110000 S
#280
0"
#284
1"
#285
b110000 !
b110000 0
b110000 V
#286
b110100 R
b110100 S
#288
0"
#292
1"
#293
b110100 !
b110100 0
b110100 V
#294
b111000 R
b111000 S
#296
0"
#300
1"
#301
b111000 !
b111000 0
b111000 V
#302
b111100 R
b111100 S
#304
0"
#308
1"
#309
b111100 !
b111100 0
b111100 V
#310
b1000000 R
b1000000 S
#312
0"
#316
1"
#317
b1000000 !
b1000000 0
b1000000 V
#318
b1000100 R
b1000100 S
#320
0"
#324
1"
#325
b1000100 !
b1000100 0
b1000100 V
#326
b1001000 R
b1001000 S
#328
0"
#332
1"
#333
b1001000 !
b1001000 0
b1001000 V
#334
b1001100 R
b1001100 S
#336
0"
#340
1"
#341
b1001100 !
b1001100 0
b1001100 V
#342
b1010000 R
b1010000 S
#344
0"
#348
1"
#349
b1010000 !
b1010000 0
b1010000 V
#350
b1010100 R
b1010100 S
#352
0"
#356
1"
#357
b1010100 !
b1010100 0
b1010100 V
#358
b1011000 R
b1011000 S
#360
0"
#364
1"
#365
b1011000 !
b1011000 0
b1011000 V
#366
b1011100 R
b1011100 S
#368
0"
#372
1"
#373
b1011100 !
b1011100 0
b1011100 V
#374
b1100000 R
b1100000 S
#376
0"
#380
1"
#381
b1100000 !
b1100000 0
b1100000 V
#382
b1100100 R
b1100100 S
#384
0"
#388
1"
#389
b1100100 !
b1100100 0
b1100100 V
#390
b1101000 R
b1101000 S
#392
0"
#396
1"
#397
b1101000 !
b1101000 0
b1101000 V
#398
b1101100 R
b1101100 S
#400
0"
#404
1"
#405
b1101100 !
b1101100 0
b1101100 V
#406
b1110000 R
b1110000 S
#408
0"
#412
1"
#413
b1110000 !
b1110000 0
b1110000 V
#414
b1110100 R
b1110100 S
#416
0"
#420
1"
#421
b1110100 !
b1110100 0
b1110100 V
#422
b1111000 R
b1111000 S
#424
0"
#428
1"
#429
b1111000 !
b1111000 0
b1111000 V
#430
b1111100 R
b1111100 S
#432
0"
#436
1"
#437
b1111100 !
b1111100 0
b1111100 V
#438
b10000000 R
b10000000 S
#440
0"
#444
1"
#445
b10000000 !
b10000000 0
b10000000 V
#446
b10000100 R
b10000100 S
#448
0"
#452
1"
#453
b10000100 !
b10000100 0
b10000100 V
#454
b10001000 R
b10001000 S
#456
0"
#460
1"
#461
b10001000 !
b10001000 0
b10001000 V
#462
b10001100 R
b10001100 S
#464
0"
#468
1"
#469
b10001100 !
b10001100 0
b10001100 V
#470
b10010000 R
b10010000 S
#472
0"
#476
1"
#477
b10010000 !
b10010000 0
b10010000 V
#478
b10010100 R
b10010100 S
#480
0"
#484
1"
