part5/shift_test.vcd
$date
	Wed May 28 10:59:44 2025
$end
$version
	Icarus Verilog
$end
$timescale
	1s
$end
$scope module shift_testbench $end
$var wire 8 ! right_out [7:0] $end
$var wire 8 " left_out [7:0] $end
$var reg 8 # data [7:0] $end
$var reg 1 $ setpin $end
$var reg 3 % shift_amount [2:0] $end
$scope module left_shifter $end
$var wire 8 & DATA1 [7:0] $end
$var wire 3 ' DATA2 [2:0] $end
$var wire 8 ( s2 [7:0] $end
$var wire 8 ) s1 [7:0] $end
$var wire 8 * s0 [7:0] $end
$var reg 8 + OUTPUT [7:0] $end
$scope module mul1_0 $end
$var wire 1 , A0 $end
$var wire 1 - A1 $end
$var wire 1 . select $end
$var wire 1 / B $end
$upscope $end
$scope module mul1_1 $end
$var wire 1 0 A0 $end
$var wire 1 1 A1 $end
$var wire 1 2 select $end
$var wire 1 3 B $end
$upscope $end
$scope module mul1_2 $end
$var wire 1 4 A0 $end
$var wire 1 5 A1 $end
$var wire 1 6 select $end
$var wire 1 7 B $end
$upscope $end
$scope module mul1_3 $end
$var wire 1 8 A0 $end
$var wire 1 9 A1 $end
$var wire 1 : select $end
$var wire 1 ; B $end
$upscope $end
$scope module mul1_4 $end
$var wire 1 < A0 $end
$var wire 1 = A1 $end
$var wire 1 > select $end
$var wire 1 ? B $end
$upscope $end
$scope module mul1_5 $end
$var wire 1 @ A0 $end
$var wire 1 A A1 $end
$var wire 1 B select $end
$var wire 1 C B $end
$upscope $end
$scope module mul1_6 $end
$var wire 1 D A0 $end
$var wire 1 E A1 $end
$var wire 1 F select $end
$var wire 1 G B $end
$upscope $end
$scope module mul1_7 $end
$var wire 1 H A0 $end
$var wire 1 I A1 $end
$var wire 1 J select $end
$var wire 1 K B $end
$upscope $end
$scope module mul2_0 $end
$var wire 1 L A0 $end
$var wire 1 M A1 $end
$var wire 1 N select $end
$var wire 1 O B $end
$upscope $end
$scope module mul2_1 $end
$var wire 1 P A0 $end
$var wire 1 Q A1 $end
$var wire 1 R select $end
$var wire 1 S B $end
$upscope $end
$scope module mul2_2 $end
$var wire 1 T A0 $end
$var wire 1 U A1 $end
$var wire 1 V select $end
$var wire 1 W B $end
$upscope $end
$scope module mul2_3 $end
$var wire 1 X A0 $end
$var wire 1 Y A1 $end
$var wire 1 Z select $end
$var wire 1 [ B $end
$upscope $end
$scope module mul2_4 $end
$var wire 1 \ A0 $end
$var wire 1 ] A1 $end
$var wire 1 ^ select $end
$var wire 1 _ B $end
$upscope $end
$scope module mul2_5 $end
$var wire 1 ` A0 $end
$var wire 1 a A1 $end
$var wire 1 b select $end
$var wire 1 c B $end
$upscope $end
$scope module mul2_6 $end
$var wire 1 d A0 $end
$var wire 1 e A1 $end
$var wire 1 f select $end
$var wire 1 g B $end
$upscope $end
$scope module mul2_7 $end
$var wire 1 h A0 $end
$var wire 1 i A1 $end
$var wire 1 j select $end
$var wire 1 k B $end
$upscope $end
$scope module mul3_0 $end
$var wire 1 l A0 $end
$var wire 1 m A1 $end
$var wire 1 n select $end
$var wire 1 o B $end
$upscope $end
$scope module mul3_1 $end
$var wire 1 p A0 $end
$var wire 1 q A1 $end
$var wire 1 r select $end
$var wire 1 s B $end
$upscope $end
$scope module mul3_2 $end
$var wire 1 t A0 $end
$var wire 1 u A1 $end
$var wire 1 v select $end
$var wire 1 w B $end
$upscope $end
$scope module mul3_3 $end
$var wire 1 x A0 $end
$var wire 1 y A1 $end
$var wire 1 z select $end
$var wire 1 { B $end
$upscope $end
$scope module mul3_4 $end
$var wire 1 | A0 $end
$var wire 1 } A1 $end
$var wire 1 ~ select $end
$var wire 1 !" B $end
$upscope $end
$scope module mul3_5 $end
$var wire 1 "" A0 $end
$var wire 1 #" A1 $end
$var wire 1 $" select $end
$var wire 1 %" B $end
$upscope $end
$scope module mul3_6 $end
$var wire 1 &" A0 $end
$var wire 1 '" A1 $end
$var wire 1 (" select $end
$var wire 1 )" B $end
$upscope $end
$scope module mul3_7 $end
$var wire 1 *" A0 $end
$var wire 1 +" A1 $end
$var wire 1 ," select $end
$var wire 1 -" B $end
$upscope $end
$upscope $end
$scope module right_shifter $end
$var wire 8 ." DATA1 [7:0] $end
$var wire 3 /" DATA2 [2:0] $end
$var wire 1 $ SETPIN $end
$var wire 8 0" s2 [7:0] $end
$var wire 8 1" s1 [7:0] $end
$var wire 8 2" s0 [7:0] $end
$var wire 1 3" fill_bit_2 $end
$var wire 1 4" fill_bit_1 $end
$var wire 1 5" fill_bit_0 $end
$var reg 8 6" OUTPUT [7:0] $end
$scope module mul1_0 $end
$var wire 1 7" A0 $end
$var wire 1 8" A1 $end
$var wire 1 9" select $end
$var wire 1 :" B $end
$upscope $end
$scope module mul1_1 $end
$var wire 1 ;" A0 $end
$var wire 1 <" A1 $end
$var wire 1 =" select $end
$var wire 1 >" B $end
$upscope $end
$scope module mul1_2 $end
$var wire 1 ?" A0 $end
$var wire 1 @" A1 $end
$var wire 1 A" select $end
$var wire 1 B" B $end
$upscope $end
$scope module mul1_3 $end
$var wire 1 C" A0 $end
$var wire 1 D" A1 $end
$var wire 1 E" select $end
$var wire 1 F" B $end
$upscope $end
$scope module mul1_4 $end
$var wire 1 G" A0 $end
$var wire 1 H" A1 $end
$var wire 1 I" select $end
$var wire 1 J" B $end
$upscope $end
$scope module mul1_5 $end
$var wire 1 K" A0 $end
$var wire 1 L" A1 $end
$var wire 1 M" select $end
$var wire 1 N" B $end
$upscope $end
$scope module mul1_6 $end
$var wire 1 O" A0 $end
$var wire 1 P" A1 $end
$var wire 1 Q" select $end
$var wire 1 R" B $end
$upscope $end
$scope module mul1_7 $end
$var wire 1 S" A0 $end
$var wire 1 5" A1 $end
$var wire 1 T" select $end
$var wire 1 U" B $end
$upscope $end
$scope module mul2_0 $end
$var wire 1 V" A0 $end
$var wire 1 W" A1 $end
$var wire 1 X" select $end
$var wire 1 Y" B $end
$upscope $end
$scope module mul2_1 $end
$var wire 1 Z" A0 $end
$var wire 1 [" A1 $end
$var wire 1 \" select $end
$var wire 1 ]" B $end
$upscope $end
$scope module mul2_2 $end
$var wire 1 ^" A0 $end
$var wire 1 _" A1 $end
$var wire 1 `" select $end
$var wire 1 a" B $end
$upscope $end
$scope module mul2_3 $end
$var wire 1 b" A0 $end
$var wire 1 c" A1 $end
$var wire 1 d" select $end
$var wire 1 e" B $end
$upscope $end
$scope module mul2_4 $end
$var wire 1 f" A0 $end
$var wire 1 g" A1 $end
$var wire 1 h" select $end
$var wire 1 i" B $end
$upscope $end
$scope module mul2_5 $end
$var wire 1 j" A0 $end
$var wire 1 k" A1 $end
$var wire 1 l" select $end
$var wire 1 m" B $end
$upscope $end
$scope module mul2_6 $end
$var wire 1 n" A0 $end
$var wire 1 4" A1 $end
$var wire 1 o" select $end
$var wire 1 p" B $end
$upscope $end
$scope module mul2_7 $end
$var wire 1 q" A0 $end
$var wire 1 4" A1 $end
$var wire 1 r" select $end
$var wire 1 s" B $end
$upscope $end
$scope module mul3_0 $end
$var wire 1 t" A0 $end
$var wire 1 u" A1 $end
$var wire 1 v" select $end
$var wire 1 w" B $end
$upscope $end
$scope module mul3_1 $end
$var wire 1 x" A0 $end
$var wire 1 y" A1 $end
$var wire 1 z" select $end
$var wire 1 {" B $end
$upscope $end
$scope module mul3_2 $end
$var wire 1 |" A0 $end
$var wire 1 }" A1 $end
$var wire 1 ~" select $end
$var wire 1 !# B $end
$upscope $end
$scope module mul3_3 $end
$var wire 1 "# A0 $end
$var wire 1 ## A1 $end
$var wire 1 $# select $end
$var wire 1 %# B $end
$upscope $end
$scope module mul3_4 $end
$var wire 1 &# A0 $end
$var wire 1 3" A1 $end
$var wire 1 '# select $end
$var wire 1 (# B $end
$upscope $end
$scope module mul3_5 $end
$var wire 1 )# A0 $end
$var wire 1 3" A1 $end
$var wire 1 *# select $end
$var wire 1 +# B $end
$upscope $end
$scope module mul3_6 $end
$var wire 1 ,# A0 $end
$var wire 1 3" A1 $end
$var wire 1 -# select $end
$var wire 1 .# B $end
$upscope $end
$scope module mul3_7 $end
$var wire 1 /# A0 $end
$var wire 1 3" A1 $end
$var wire 1 0# select $end
$var wire 1 1# B $end
$upscope $end
$upscope $end
$upscope $end
$enddefinitions $end
$comment Show the parameter values. $end
$dumpall
$end
#0
$dumpvars
11#
00#
1/#
1.#
0-#
1,#
0+#
0*#
0)#
1(#
0'#
1&#
1%#
0$#
1##
1"#
0!#
0~"
1}"
0|"
0{"
0z"
0y"
0x"
1w"
0v"
1u"
1t"
1s"
0r"
1q"
1p"
0o"
1n"
0m"
0l"
1k"
0j"
1i"
0h"
1g"
1f"
1e"
0d"
0c"
1b"
0a"
0`"
1_"
0^"
0]"
0\"
1["
0Z"
1Y"
0X"
0W"
1V"
1U"
1T"
1S"
1R"
1Q"
1P"
0O"
0N"
1M"
0L"
1K"
1J"
1I"
1H"
1G"
1F"
1E"
1D"
0C"
0B"
1A"
0@"
0?"
0>"
1="
0<"
1;"
1:"
19"
18"
17"
bx 6"
15"
04"
13"
b11011001 2"
b11011001 1"
b11011001 0"
b1 /"
b10110011 ."
1-"
0,"
1+"
1*"
0)"
0("
0'"
0&"
0%"
0$"
1#"
0""
1!"
0~
0}
1|
1{
0z
0y
1x
0w
0v
0u
0t
1s
0r
0q
1p
0o
0n
0m
0l
1k
0j
0i
1h
0g
0f
1e
0d
0c
0b
1a
0`
1_
0^
0]
1\
1[
0Z
1Y
1X
0W
0V
0U
0T
1S
0R
0Q
1P
0O
0N
0M
0L
1K
1J
1I
1H
0G
1F
0E
1D
0C
1B
0A
0@
1?
1>
1=
0<
1;
1:
19
18
07
16
05
14
13
12
11
00
0/
1.
0-
1,
bx +
b1011001 *
b1011001 )
b1011001 (
b1 '
b10110011 &
b1 %
0$
b10110011 #
bx "
bx !
$end
#2
b1011001 "
b1011001 +
b11011001 !
b11011001 6"
#10
1w
0{
0(#
1t
1'"
0x
0+"
0u"
0&#
1W
0[
0s
1!"
1%"
0)"
b101100 (
0-"
14"
0i"
0w"
0{"
1!#
1%#
13"
1+#
1.#
b11101100 0"
11#
1L
1U
0P
0Y
1T
1]
0\
0e
1d
0p
0#"
1|
1""
0&"
0*"
1Z"
0["
0b"
1c"
1j"
0g"
0n"
0t"
0x"
1|"
1"#
1y"
1)#
1}"
1,#
1##
1/#
1/
03
17
0?
b10110011 *
1G
0S
1_
1c
0g
b101100 )
0k
1>"
0F"
1N"
b10110011 2"
0R"
0Y"
0]"
1a"
1e"
1m"
1p"
b11101100 1"
1s"
0.
02
06
0:
0>
0B
0F
0J
1N
1R
1V
1Z
1^
1b
1f
1j
09"
0="
0A"
0E"
0I"
0M"
0Q"
0T"
1X"
1\"
1`"
1d"
1h"
1l"
1o"
1r"
b10 %
b10 '
b10 /"
#12
b101100 "
b101100 +
b11101100 !
b11101100 6"
#20
0.#
01#
0w
1{
0!"
b10110 (
1)"
0}"
0,#
0##
0/#
1{"
0%#
03"
b110110 0"
1(#
0t
0'"
1x
1+"
0|
1&"
0p"
0s"
1x"
0"#
1u"
1&#
0W
1[
0_
b10110 )
1g
04"
1]"
0e"
b110110 1"
1i"
0L
0U
1P
1Y
0T
0]
1\
1e
0d
0Z"
1["
1b"
0c"
0j"
1g"
1n"
0/
13
07
1?
b1011001 *
0G
0>"
1F"
0N"
b11011001 2"
1R"
1.
12
16
1:
1>
1B
1F
1J
19"
1="
1A"
1E"
1I"
1M"
1Q"
1T"
b11 %
b11 '
b11 /"
#22
b10110 "
b10110 +
b110110 !
b110110 6"
#30
1s
1!"
0%"
0)"
b1011001 (
1-"
1w"
0{"
0!#
1%#
13"
0+#
1.#
b11011001 0"
11#
1p
1#"
1|
0""
0&"
1*"
1t"
0x"
0|"
1"#
0y"
0)#
1}"
1,#
1##
1/#
1S
1_
0c
0g
b1011001 )
1k
1Y"
0]"
0a"
1e"
0m"
1p"
b11011001 1"
1s"
0N
0R
0V
0Z
0^
0b
0f
0j
0X"
0\"
0`"
0d"
0h"
0l"
0o"
0r"
b1 %
b1 '
b1 /"
#32
b1011001 "
b1011001 +
b11011001 !
b11011001 6"
#40
14"
1$
#50
0s
0!"
1%"
1)"
b10110 (
0-"
0w"
1{"
1!#
0%#
b11110110 0"
1+#
0p
0#"
0|
1""
1&"
0*"
0t"
1x"
1|"
0"#
1y"
1)#
0S
0_
1c
1g
b10110 )
0k
0Y"
1]"
1a"
0e"
b11110110 1"
1m"
1N
1R
1V
1Z
1^
1b
1f
1j
1X"
1\"
1`"
1d"
1h"
1l"
1o"
1r"
b11 %
b11 '
b11 /"
#52
b10110 "
b10110 +
b11110110 !
b11110110 6"
#60
1w
0{
1!"
b101100 (
0)"
0{"
1%#
0(#
1t
1'"
0x
0+"
1|
0&"
0x"
1"#
0u"
0&#
1.#
b11101100 0"
11#
1W
0[
1_
b101100 )
0g
0]"
1e"
0i"
1}"
1,#
1##
1/#
1L
1U
0P
0Y
1T
1]
0\
0e
1d
1Z"
0["
0b"
1c"
1j"
0g"
0n"
1p"
b11101100 1"
1s"
1/
03
17
0?
b10110011 *
1G
1>"
0F"
1N"
b10110011 2"
0R"
14"
13"
0.
02
06
0:
0>
0B
0F
0J
09"
0="
0A"
0E"
0I"
0M"
0Q"
0T"
0$
b10 %
b10 '
b10 /"
#62
b101100 "
b101100 +
b11101100 !
b11101100 6"
#70
0.#
01#
03"
0w
b11100 (
1{
1(#
b11100 0"
0+#
0}"
0,#
0##
0/#
0t
0'"
1x
1+"
1u"
1&#
0y"
0)#
0p"
0s"
0W
b11100 )
1[
1i"
b11100 1"
0m"
04"
0L
0U
1P
1Y
1g"
1n"
0k"
0q"
0/
b1110011 *
13
1R"
b1110011 2"
0U"
05"
0,
10
01
15
1L"
1O"
0P"
0S"
1$
b1110011 #
b1110011 &
b1110011 ."
#72
b11100 "
b11100 +
b11100 !
b11100 6"
#80
1{"
1&"
1*"
1t"
1x"
1y"
1)#
1g
b11111 )
1k
1Y"
1]"
1m"
1}"
1,#
1##
1/#
1\
1e
1`
1i
1W"
1^"
1["
1b"
1k"
1q"
1p"
b11111111 1"
1s"
0{
0!"
0%"
b1 (
1-"
1w"
1!#
1%#
1+#
1.#
b11111111 0"
11#
1?
b1111111 *
1C
1B"
1F"
b11111111 2"
1U"
15"
14"
13"
1.
12
16
1:
1>
1B
1F
1J
1n
1r
1v
1z
1~
1$"
1("
1,"
19"
1="
1A"
1E"
1I"
1M"
1Q"
1T"
1v"
1z"
1~"
1$#
1'#
1*#
1-#
10#
1,
11
1<
1@
1A
1E
1<"
1?"
1@"
1C"
1P"
1S"
0$
b111 %
b111 '
b111 /"
b11111111 #
b11111111 &
b11111111 ."
#82
b1 "
b1 +
b11111111 !
b11111111 6"
#90
1$
